{
  "formatVersion": 1,
  "database": {
    "version": 1,
    "identityHash": "83689c5edcb2b53f3d671a735468c09d",
    "entities": [
      {
        "tableName": "stocks",
        "createSql": "CREATE TABLE IF NOT EXISTS `${TABLE_NAME}` (`symbol` TEXT NOT NULL, `name` TEXT NOT NULL, `price` REAL NOT NULL, PRIMARY KEY(`symbol`))",
        "fields": [
          {
            "fieldPath": "symbol",
            "columnName": "symbol",
            "affinity": "TEXT",
            "notNull": true
          },
          {
            "fieldPath": "name",
            "columnName": "name",
            "affinity": "TEXT",
            "notNull": true
          },
          {
            "fieldPath": "price",
            "columnName": "price",
            "affinity": "REAL",
            "notNull": true
          }
        ],
        "primaryKey": {
          "columnNames": [
            "symbol"
          ],
          "autoGenerate": false
        },
        "indices": [],
        "foreignKeys": []
      }
    ],
    "views": [],
    "setupQueries": [
      "CREATE TABLE IF NOT EXISTS room_master_table (id INTEGER PRIMARY KEY,identity_hash TEXT)",
      "INSERT OR REPLACE INTO room_master_table (id,identity_hash) VALUES(42, '83689c5edcb2b53f3d671a735468c09d')"
    ]
  }
}